module wisol

require (
	cloud.google.com/go v0.37.2 // indirect
	github.com/Joker/jade v1.0.0 // indirect
	github.com/Shopify/goreferrer v0.0.0-20181106222321-ec9c9a553398 // indirect
	github.com/ajg/form v1.5.1 // indirect
	github.com/aymerick/raymond v2.0.2+incompatible // indirect
	github.com/denisenkom/go-mssqldb v0.0.0-20190315220205-a8ed825ac853
	github.com/dgrijalva/jwt-go v3.2.0+incompatible
	github.com/eknkc/amber v0.0.0-20171010120322-cdade1c07385 // indirect
	github.com/fatih/structs v1.1.0 // indirect
	github.com/flosch/pongo2 v0.0.0-20181225140029-79872a7b2769 // indirect
	github.com/gavv/monotime v0.0.0-20171021193802-6f8212e8d10d // indirect
	github.com/go-redis/redis v6.15.2+incompatible
	github.com/google/uuid v1.1.1
	github.com/imkira/go-interpol v1.1.0 // indirect
	github.com/iris-contrib/blackfriday v2.0.0+incompatible // indirect
	github.com/iris-contrib/formBinder v0.0.0-20190104093907-fbd5963f41e1 // indirect
	github.com/iris-contrib/go.uuid v2.0.0+incompatible // indirect
	github.com/iris-contrib/httpexpect v0.0.0-20180314041918-ebe99fcebbce // indirect
	github.com/iris-contrib/middleware v0.0.0-20181021162728-8bd5d51b3c2e
	github.com/json-iterator/go v1.1.6 // indirect
	github.com/k0kubun/colorstring v0.0.0-20150214042306-9440f1994b88 // indirect
	github.com/kataras/golog v0.0.0-20180321173939-03be10146386 // indirect
	github.com/kataras/iris v11.1.1+incompatible
	github.com/kataras/pio v0.0.0-20190103105442-ea782b38602d // indirect
	github.com/klauspost/compress v1.4.1 // indirect
	github.com/klauspost/cpuid v1.2.0 // indirect
	github.com/mattn/go-colorable v0.1.1 // indirect
	github.com/microcosm-cc/bluemonday v1.0.2 // indirect
	github.com/modern-go/concurrent v0.0.0-20180306012644-bacd9c7ef1dd // indirect
	github.com/modern-go/reflect2 v1.0.1 // indirect
	github.com/moul/http2curl v1.0.0 // indirect
	github.com/ryanuber/columnize v2.1.0+incompatible // indirect
	github.com/sergi/go-diff v1.0.0 // indirect
	github.com/shurcooL/sanitized_anchor_name v1.0.0 // indirect
	github.com/sirupsen/logrus v1.4.0
	github.com/smartystreets/goconvey v0.0.0-20190306220146-200a235640ff // indirect
	github.com/spf13/viper v1.3.2
	github.com/xeipuuv/gojsonpointer v0.0.0-20180127040702-4e3ac2762d5f // indirect
	github.com/xeipuuv/gojsonreference v0.0.0-20180127040603-bd5ef7bd5415 // indirect
	github.com/xeipuuv/gojsonschema v1.1.0 // indirect
	github.com/yalp/jsonpath v0.0.0-20180802001716-5cc68e5049a0 // indirect
	github.com/yudai/gojsondiff v1.0.0 // indirect
	github.com/yudai/golcs v0.0.0-20170316035057-ecda9a501e82 // indirect
	github.com/yudai/pp v2.0.1+incompatible // indirect
	golang.org/x/crypto v0.0.0-20190308221718-c2843e01d9a2
	gopkg.in/check.v1 v1.0.0-20180628173108-788fd7840127 // indirect
)
